Advanced Data Manipulation and Modelling with tidyverse
…
   mpg_avg  mpg_std cyl_avg  cyl_std disp_avg disp_std   hp_avg   hp_std
1 20.09062 6.026948  6.1875 1.785922 230.7219 123.9387 146.6875 68.56287
  drat_avg  drat_std  wt_avg    wt_std qsec_avg qsec_std vs_avg    vs_std
1 3.596563 0.5346787 3.21725 0.9784574 17.84875 1.786943 0.4375 0.5040161
   am_avg    am_std gear_avg  gear_std carb_avg carb_std
1 0.40625 0.4989909   3.6875 0.7378041   2.8125   1.6152

# Converting character columns to factors
starwars %>%
  mutate(across(where(is.character), as.factor)) %>% 
  select(name, where(is.factor))

# A tibble: 87 × 8
   name           hair_color skin_color eye_color sex   gender homeworld species
   <fct>          <fct>      <fct>      <fct>     <fct> <fct>  <fct>     <fct>  
 1 Luke Skywalker blond      fair       blue      male  mascu… Tatooine  Human  
 2 C-3PO          <NA>       gold       yellow    none  mascu… Tatooine  Droid  
 3 R2-D2          <NA>       white, bl… red       none  mascu… Naboo     Droid  
 4 Darth Vader    none       white      yellow    male  mascu… Tatooine  Human  
 5 Leia Organa    brown      light      brown     fema… femin… Alderaan  Human  
 6 Owen Lars      brown, gr… light      blue      male  mascu… Tatooine  Human  
 7 Beru Whitesun… brown      light      blue      fema… femin… Tatooine  Human  
 8 R5-D4          <NA>       white, red red       none  mascu… Tatooine  Droid  
 9 Biggs Darklig… black      light      brown     male  mascu… Tatooine  Human  
10 Obi-Wan Kenobi auburn, w… fair       blue-gray male  mascu… Stewjon   Human  
# ℹ 77 more rows
…
Practical Example: (Un)Nesting

Original Data

Nested Data

# Display some columns
starwars %>% select(species, name, height, mass, gender, homeworld)

# A tibble: 87 × 6
   species name               height  mass gender    homeworld
   <chr>   <chr>               <int> <dbl> <chr>     <chr>    
 1 Human   Luke Skywalker        172    77 masculine Tatooine 
 2 Droid   C-3PO                 167    75 masculine Tatooine 
 3 Droid   R2-D2                  96    32 masculine Naboo    
 4 Human   Darth Vader           202   136 masculine Tatooine 
 5 Human   Leia Organa           150    49 feminine  Alderaan 
 6 Human   Owen Lars             178   120 masculine Tatooine 
 7 Human   Beru Whitesun Lars    165    75 feminine  Tatooine 
 8 Droid   R5-D4                  97    32 masculine Tatooine 
 9 Human   Biggs Darklighter     183    84 masculine Tatooine 
10 Human   Obi-Wan Kenobi        182    77 masculine Stewjon  
# ℹ 77 more rows

# Nesting data by species
starwars %>%
  dplyr::group_by(species) %>%
  tidyr::nest()

# A tibble: 38 × 2
# Groups:   species [38]
   species        data              
   <chr>          <list>            
 1 Human          <tibble [35 × 13]>
 2 Droid          <tibble [6 × 13]> 
 3 Wookiee        <tibble [2 × 13]> 
 4 Rodian         <tibble [1 × 13]> 
 5 Hutt           <tibble [1 × 13]> 
 6 <NA>           <tibble [4 × 13]> 
 7 Yoda's species <tibble [1 × 13]> 
 8 Trandoshan     <tibble [1 × 13]> 
 9 Mon Calamari   <tibble [1 × 13]> 
10 Ewok           <tibble [1 × 13]> 
# ℹ 28 more rows
…
mtcars_nested %>%
  select(cyl, data, model, augmented) %>%
  unnest(augmented)

# A tibble: 32 × 11
# Groups:   cyl [3]
     cyl data     model    mpg    wt .fitted .resid   .hat .sigma .cooksd
   <dbl> <list>   <list> <dbl> <dbl>   <dbl>  <dbl>  <dbl>  <dbl>   <dbl>
 1     6 <tibble> <lm>    21    2.62    21.1 -0.125 0.467   1.30  0.00947
 2     6 <tibble> <lm>    21    2.88    20.4  0.584 0.220   1.26  0.0454 
 3     6 <tibble> <lm>    21.4  3.22    19.5  1.93  0.155   0.772 0.299  
 4     6 <tibble> <lm>    18.1  3.46    18.8 -0.690 0.297   1.24  0.105  
 5     6 <tibble> <lm>    19.2  3.44    18.8  0.355 0.280   1.29  0.0250 
 6     6 <tibble> <lm>    17.8  3.44    18.8 -1.05  0.280   1.15  0.217  
 7     6 <tibble> <lm>    19.7  2.77    20.7 -1.01  0.301   1.15  0.231  
 8     4 <tibble> <lm>    22.8  2.32    26.5 -3.67  0.0913  3.26  0.0670 
 9     4 <tibble> <lm>    24.4  3.19    21.6  2.84  0.343   3.31  0.289  
10     4 <tibble> <lm>    22.8  3.15    21.8  1.02  0.321   3.51  0.0325 
# ℹ 22 more rows
# ℹ 1 more variable: .std.resid <dbl>
…
